Homework 8
…
We’ll summarize caross hours, so each day only has one observation. The data will be grouped by Date, Seasons, and Holiday. We’ll find the average of all the numeric variables (so we’ll know the average temperature on a particular, etc.) and we’ll sum the total bikes, rain, and snow )so we’ll know the total over a particular day).

my_sample_final<-my_sample_functioning|>
  group_by(Date, Seasons, Holiday)|>
  summarize(sum_bikes = sum(Rented_Bike_Count), sum_rain = sum(Rainfall), sum_snow = sum(Snowfall),
            across(where(is.numeric), list("mean" = mean),
                   .names = "{.fn}_{.col}"))|>
  select(-mean_Hour, -mean_sum_bikes, -mean_sum_rain, -mean_sum_snow, -mean_Rented_Bike_Count, -mean_Rainfall, -mean_Snowfall)

`summarise()` has grouped output by 'Date', 'Seasons'. You can override using
the `.groups` argument.

my_sample_final

# A tibble: 353 × 12
# Groups:   Date, Seasons [353]
   Date       Seasons Holiday    sum_bikes sum_rain sum_snow mean_Temperature
   <date>     <fct>   <fct>          <dbl>    <dbl>    <dbl>            <dbl>
 1 2017-12-01 Winter  No Holiday      9539      0        0            -2.45  
 2 2017-12-02 Winter  No Holiday      8523      0        0             1.32  
 3 2017-12-03 Winter  No Holiday      7222      4        0             4.88  
 4 2017-12-04 Winter  No Holiday      8729      0.1      0            -0.304 
 5 2017-12-05 Winter  No Holiday      8307      0        0            -4.46  
 6 2017-12-06 Winter  No Holiday      6669      1.3      8.6           0.0458
 7 2017-12-07 Winter  No Holiday      8549      0       10.4           1.09  
 8 2017-12-08 Winter  No Holiday      8032      0        0            -3.82  
 9 2017-12-09 Winter  No Holiday      7233      0        0            -0.846 
10 2017-12-10 Winter  No Holiday      3453      4.1     32.5           1.19  
# ℹ 343 more rows
# ℹ 5 more variables: mean_Humidity <dbl>, mean_Wind_speed <dbl>,
#   mean_Visability <dbl>, mean_Dew_point_temperature <dbl>,
#   mean_Solar_radiation <dbl>
…
my_sample_10_fold <- vfold_cv(my_sample_train, 10)

my_sample_CV_fits <- my_sample_r1_wfl |>
  fit_resamples(my_sample_10_fold)

my_sample_r2_wfl <- workflow() |>
  add_recipe(r_2) |>
  add_model(my_sample_model)

second_model<- my_sample_r2_wfl|>
  fit(my_sample_train)
second_model|>
  tidy()

# A tibble: 21 × 5
   term                       estimate std.error statistic  p.value
   <chr>                         <dbl>     <dbl>     <dbl>    <dbl>
 1 (Intercept)                 11781.      2108.     5.59  6.17e- 8
 2 sum_rain                    -2184.       353.    -6.18  2.73e- 9
 3 sum_snow                     -156.       200.    -0.780 4.36e- 1
 4 mean_Temperature            -5200.      3707.    -1.40  1.62e- 1
 5 mean_Humidity               -4204.      1381.    -3.04  2.59e- 3
 6 mean_Wind_speed              -454.       217.    -2.09  3.74e- 2
 7 mean_Visability                45.2      279.     0.162 8.71e- 1
 8 mean_Dew_point_temperature  12498.      4253.     2.94  3.61e- 3
 9 mean_Solar_radiation         3466.       344.    10.1   3.56e-20
10 Seasons_Spring                340.      2758.     0.123 9.02e- 1
# ℹ 11 more rows
…
There were issues with some computations   A: x1

There were issues with some computations   A: x2

my_sample_r3_wfl <- workflow() |>
  add_recipe(r_3) |>
  add_model(my_sample_model)

third_model<- my_sample_r3_wfl|>
  fit(my_sample_train)

third_model|>
  tidy()

# A tibble: 29 × 5
   term                       estimate std.error statistic  p.value
   <chr>                         <dbl>     <dbl>     <dbl>    <dbl>
 1 (Intercept)                  12066.     2094.     5.76  2.58e- 8
 2 sum_rain                     -3509.      611.    -5.74  2.88e- 8
 3 sum_snow                       102.      650.     0.157 8.76e- 1
 4 mean_Temperature               719.     4183.     0.172 8.64e- 1
 5 mean_Humidity                -1872.     1562.    -1.20  2.32e- 1
 6 mean_Wind_speed               -564.      254.    -2.22  2.74e- 2
 7 mean_Visability                168.      302.     0.557 5.78e- 1
 8 mean_Dew_point_temperature    5624.     4887.     1.15  2.51e- 1
 9 mean_Solar_radiation          3194.      360.     8.86  2.05e-16
10 Seasons_Spring                1557.     2737.     0.569 5.70e- 1
# ℹ 19 more rows
…
